…
> frequency
> #> # A tibble: 57,820 × 4
> #> word `Jane Austen` author proportion
> #> <chr> <dbl> <chr> <dbl>
> #> 1 a 0.00000919 Brontë Sisters 0.0000319
> #> 2 a 0.00000919 H.G. Wells 0.0000150
> #> 3 a'most NA Brontë Sisters 0.0000159
> #> 4 a'most NA H.G. Wells NA
> #> 5 aback NA Brontë Sisters 0.00000398
> #> 6 aback NA H.G. Wells 0.0000150
> #> 7 abaht NA Brontë Sisters 0.00000398
> #> 8 abaht NA H.G. Wells NA
> #> 9 abandon NA Brontë Sisters 0.0000319
> #> 10 abandon NA H.G. Wells 0.0000150
> #> # ... with 57,810 more rows
```
…
